<svg width="20" height="20" viewBox="0 0 20 20" fill="none" xmlns="http://www.w3.org/2000/svg">
<path fill-rule="evenodd" clip-rule="evenodd" d="M12.5537 2.11288C12.9328 1.95583 13.3392 1.875 13.7495 1.875C14.1599 1.875 14.5663 1.95583 14.9454 2.11288C15.3246 2.26992 15.6691 2.50011 15.9593 2.79029C16.2494 3.08047 16.4796 3.42497 16.6367 3.80411C16.7937 4.18326 16.8745 4.58962 16.8745 5C16.8745 5.41038 16.7937 5.81674 16.6367 6.19589C16.4799 6.57433 16.2503 6.91827 15.9608 7.20812C15.9603 7.20865 15.9598 7.20918 15.9593 7.20971L8.20084 15.0762C7.84921 15.4278 7.37228 15.6254 6.875 15.6254C6.37772 15.6254 5.90081 15.4278 5.54918 15.0762C5.19754 14.7246 5 14.2477 5 13.7504C5 13.254 5.19679 12.778 5.54717 12.4266L12.054 5.81171C12.296 5.56563 12.6918 5.56237 12.9378 5.80443C13.1839 6.04649 13.1872 6.44221 12.9451 6.68829L6.43307 13.3085C6.31586 13.4257 6.25 13.5846 6.25 13.7504C6.25 13.9161 6.31585 14.0751 6.43306 14.1923C6.55027 14.3095 6.70924 14.3754 6.875 14.3754C7.04016 14.3754 7.19859 14.31 7.31567 14.1936C7.3161 14.1932 7.31652 14.1927 7.31694 14.1923L15.0754 6.32581C15.2495 6.15171 15.3876 5.94502 15.4818 5.71753C15.576 5.49005 15.6245 5.24623 15.6245 5C15.6245 4.75377 15.576 4.50995 15.4818 4.28247C15.3876 4.05498 15.2495 3.84829 15.0754 3.67417C14.9013 3.50006 14.6946 3.36195 14.4671 3.26773C14.2396 3.1735 13.9958 3.125 13.7495 3.125C13.5033 3.125 13.2595 3.1735 13.032 3.26773C12.8052 3.36169 12.599 3.49931 12.4252 3.67274L4.6653 11.5407C4.07925 12.1267 3.75 12.9216 3.75 13.7504C3.75 14.5792 4.07924 15.374 4.66529 15.9601C5.25134 16.5461 6.0462 16.8754 6.875 16.8754C7.7038 16.8754 8.49866 16.5461 9.08471 15.9601L15.4954 9.55777C15.7396 9.31385 16.1354 9.31411 16.3793 9.55835C16.6232 9.80259 16.6229 10.1983 16.3787 10.4422L9.96859 16.844C9.14812 17.6644 8.03532 18.1254 6.875 18.1254C5.71468 18.1254 4.60188 17.6644 3.78141 16.844C2.96094 16.0235 2.5 14.9107 2.5 13.7504C2.5 12.5908 2.96034 11.4787 3.77982 10.6584L11.5398 2.79028C11.83 2.5001 12.1745 2.26992 12.5537 2.11288Z" fill="#666666"/>
</svg>
