<svg width="12" height="9" viewBox="0 0 12 9" fill="none" xmlns="http://www.w3.org/2000/svg">
<path fill-rule="evenodd" clip-rule="evenodd" d="M1.58272 2.54704C2.47665 1.65302 3.87942 0.749512 5.87915 0.749512C7.87888 0.749512 9.28165 1.65302 10.1756 2.54704C10.6215 2.99298 10.943 3.43826 11.1535 3.77269C11.259 3.94019 11.3371 4.08075 11.3896 4.18085C11.4158 4.23094 11.4356 4.27098 11.4493 4.2993C11.4561 4.31347 11.4614 4.32472 11.4651 4.33283L11.4696 4.34263L11.471 4.34573L11.4717 4.34724C11.4718 4.34742 11.4718 4.34759 11.1292 4.49988C11.4718 4.65219 11.4717 4.65236 11.4717 4.65254L11.4715 4.65297L11.471 4.65406L11.4696 4.65715L11.4651 4.66695C11.4614 4.67507 11.4561 4.68631 11.4493 4.70047C11.4356 4.72879 11.4158 4.76883 11.3896 4.8189C11.3371 4.91899 11.259 5.05951 11.1535 5.22698C10.943 5.56135 10.6214 6.00654 10.1756 6.45237C9.28161 7.34622 7.87885 8.24951 5.87915 8.24951C3.87945 8.24951 2.47669 7.34622 1.58275 6.45237C1.13686 6.00654 0.815339 5.56135 0.604792 5.22698C0.499334 5.05951 0.421182 4.91899 0.368749 4.8189C0.342518 4.76883 0.322681 4.72879 0.309043 4.70047C0.302223 4.68631 0.296949 4.67507 0.293197 4.66695L0.288706 4.65715L0.28731 4.65406L0.286823 4.65297L0.286633 4.65254C0.286552 4.65236 0.286477 4.65219 0.62915 4.49988C0.286465 4.34759 0.28654 4.34742 0.28662 4.34724L0.286811 4.34681L0.287298 4.34573L0.288693 4.34263L0.293184 4.33283C0.296935 4.32472 0.302209 4.31347 0.309029 4.2993C0.322667 4.27098 0.342503 4.23094 0.368733 4.18085C0.421166 4.08075 0.499316 3.94019 0.604772 3.77269C0.815316 3.43826 1.13684 2.99298 1.58272 2.54704ZM0.62915 4.49988L0.286465 4.34759C0.243375 4.44455 0.243379 4.55523 0.286477 4.65219L0.62915 4.49988ZM1.04844 4.49986C1.09256 4.41721 1.15592 4.30497 1.23947 4.17227C1.42736 3.87382 1.71521 3.47526 2.11308 3.07735C2.90665 2.28369 4.12888 1.49951 5.87915 1.49951C7.62942 1.49951 8.85165 2.28369 9.64522 3.07735C10.0431 3.47526 10.3309 3.87382 10.5188 4.17227C10.6024 4.30497 10.6657 4.41721 10.7099 4.49986C10.6657 4.58248 10.6024 4.69468 10.5189 4.82734C10.331 5.12573 10.0431 5.52419 9.64525 5.92202C8.85169 6.71549 7.62945 7.49951 5.87915 7.49951C4.12885 7.49951 2.90661 6.71549 2.11305 5.92202C1.71519 5.52419 1.42734 5.12573 1.23945 4.82734C1.15591 4.69468 1.09256 4.58248 1.04844 4.49986ZM11.1292 4.49988L11.4718 4.65219C11.5149 4.55523 11.5149 4.44455 11.4718 4.34759L11.1292 4.49988Z" fill="#666666"/>
<path fill-rule="evenodd" clip-rule="evenodd" d="M5.87915 3C5.05072 3 4.37915 3.67157 4.37915 4.5C4.37915 5.32843 5.05072 6 5.87915 6C6.70758 6 7.37915 5.32843 7.37915 4.5C7.37915 3.67157 6.70758 3 5.87915 3ZM3.62915 4.5C3.62915 3.25736 4.63651 2.25 5.87915 2.25C7.12179 2.25 8.12915 3.25736 8.12915 4.5C8.12915 5.74264 7.12179 6.75 5.87915 6.75C4.63651 6.75 3.62915 5.74264 3.62915 4.5Z" fill="#666666"/>
</svg>
