<svg width="12" height="20" viewBox="0 0 12 20" fill="none" xmlns="http://www.w3.org/2000/svg">
<path fill-rule="evenodd" clip-rule="evenodd" d="M11.1187 0.631282C11.4604 0.97299 11.4604 1.52701 11.1187 1.86872L2.98744 10L11.1187 18.1313C11.4604 18.473 11.4604 19.027 11.1187 19.3687C10.777 19.7104 10.223 19.7104 9.88128 19.3687L1.13128 10.6187C0.789573 10.277 0.789573 9.72299 1.13128 9.38128L9.88128 0.631282C10.223 0.289573 10.777 0.289573 11.1187 0.631282Z" fill="white"/>
</svg>
