<svg width="12" height="20" viewBox="0 0 12 20" fill="none" xmlns="http://www.w3.org/2000/svg">
<path fill-rule="evenodd" clip-rule="evenodd" d="M0.881282 0.631282C1.22299 0.289573 1.77701 0.289573 2.11872 0.631282L10.8687 9.38128C11.2104 9.72299 11.2104 10.277 10.8687 10.6187L2.11872 19.3687C1.77701 19.7104 1.22299 19.7104 0.881282 19.3687C0.539573 19.027 0.539573 18.473 0.881282 18.1313L9.01256 10L0.881282 1.86872C0.539573 1.52701 0.539573 0.97299 0.881282 0.631282Z" fill="black"/>
</svg>
