<svg width="24" height="24" viewBox="0 0 24 24" fill="none" xmlns="http://www.w3.org/2000/svg">
<path fill-rule="evenodd" clip-rule="evenodd" d="M1.18934 5.31434C1.47064 5.03304 1.85217 4.875 2.25 4.875H14.25C15.2446 4.875 16.1984 5.27009 16.9016 5.97335C17.6049 6.67661 18 7.63044 18 8.625V17.625C18 18.0228 17.842 18.4044 17.5607 18.6857C17.2794 18.967 16.8978 19.125 16.5 19.125H4.5C3.50544 19.125 2.55161 18.7299 1.84835 18.0267C1.14509 17.3234 0.75 16.3696 0.75 15.375V6.375C0.75 5.97718 0.908035 5.59564 1.18934 5.31434ZM2.25 6.375V15.375C2.25 15.9717 2.48705 16.544 2.90901 16.966C3.33097 17.3879 3.90326 17.625 4.5 17.625H16.5V8.625C16.5 8.02826 16.2629 7.45597 15.841 7.03401C15.419 6.61205 14.8467 6.375 14.25 6.375L2.25 6.375Z" fill="#4B4B4B"/>
<path fill-rule="evenodd" clip-rule="evenodd" d="M22.8763 6.85132C23.1076 6.98551 23.2499 7.23265 23.2499 7.5V16.5C23.2499 16.7674 23.1076 17.0145 22.8763 17.1487C22.6451 17.2829 22.3599 17.2838 22.1278 17.1512L16.8778 14.1512C16.5181 13.9457 16.3932 13.4875 16.5987 13.1279C16.8042 12.7683 17.2624 12.6433 17.622 12.8488L21.7499 15.2076V8.79238L17.622 11.1512C17.2624 11.3567 16.8042 11.2317 16.5987 10.8721C16.3932 10.5125 16.5181 10.0543 16.8778 9.84882L22.1278 6.84882C22.3599 6.71617 22.6451 6.71713 22.8763 6.85132Z" fill="#4B4B4B"/>
</svg>
