<svg width="18" height="18" viewBox="0 0 18 18" fill="none" xmlns="http://www.w3.org/2000/svg">
<path fill-rule="evenodd" clip-rule="evenodd" d="M9 2.125C5.20304 2.125 2.125 5.20304 2.125 9C2.125 12.797 5.20304 15.875 9 15.875C12.797 15.875 15.875 12.797 15.875 9C15.875 5.20304 12.797 2.125 9 2.125ZM0.875 9C0.875 4.51269 4.51269 0.875 9 0.875C13.4873 0.875 17.125 4.51269 17.125 9C17.125 13.4873 13.4873 17.125 9 17.125C4.51269 17.125 0.875 13.4873 0.875 9ZM9 5.25C9.34518 5.25 9.625 5.52982 9.625 5.875V10.6161L11.2097 9.03142C11.4538 8.78734 11.8495 8.78734 12.0936 9.03142C12.3377 9.2755 12.3377 9.67122 12.0936 9.9153L9.44194 12.5669C9.19786 12.811 8.80214 12.811 8.55806 12.5669L5.90642 9.9153C5.66234 9.67122 5.66234 9.2755 5.90642 9.03142C6.1505 8.78734 6.54622 8.78734 6.7903 9.03142L8.375 10.6161V5.875C8.375 5.52982 8.65482 5.25 9 5.25Z" fill="black"/>
</svg>
