<svg width="24" height="26" viewBox="0 0 24 26" fill="none" xmlns="http://www.w3.org/2000/svg">
<path fill-rule="evenodd" clip-rule="evenodd" d="M0.999512 4.00001L22.9995 4C23.5518 4 23.9995 4.44771 23.9995 5C23.9995 5.55228 23.5518 6 22.9995 6L0.999512 6.00001C0.447227 6.00001 -0.000488102 5.55229 -0.000488281 5.00001C-0.0004884 4.44772 0.447227 4.00001 0.999512 4.00001Z" fill="white"/>
<path fill-rule="evenodd" clip-rule="evenodd" d="M9 10C9.55228 10 10 10.4477 10 11V19C10 19.5523 9.55228 20 9 20C8.44772 20 8 19.5523 8 19V11C8 10.4477 8.44772 10 9 10Z" fill="white"/>
<path fill-rule="evenodd" clip-rule="evenodd" d="M15 10C15.5523 10 16 10.4477 16 11V19C16 19.5523 15.5523 20 15 20C14.4477 20 14 19.5523 14 19V11C14 10.4477 14.4477 10 15 10Z" fill="white"/>
<path fill-rule="evenodd" clip-rule="evenodd" d="M2.99951 4C3.5518 4 3.99951 4.44772 3.99951 5V24H19.9995V5.00001C19.9995 4.44772 20.4472 4.00001 20.9995 4.00001C21.5518 4.00001 21.9995 4.44772 21.9995 5.00001V24C21.9995 24.5304 21.7888 25.0391 21.4137 25.4142C21.0387 25.7893 20.5299 26 19.9995 26H3.99951C3.46908 26 2.96037 25.7893 2.5853 25.4142C2.21023 25.0391 1.99951 24.5304 1.99951 24V5C1.99951 4.44772 2.44723 4 2.99951 4Z" fill="white"/>
<path fill-rule="evenodd" clip-rule="evenodd" d="M6.87868 0.87868C7.44129 0.31607 8.20435 0 9 0H15C15.7956 0 16.5587 0.31607 17.1213 0.87868C17.6839 1.44129 18 2.20435 18 3V5C18 5.55228 17.5523 6 17 6C16.4477 6 16 5.55228 16 5V3C16 2.73478 15.8946 2.48043 15.7071 2.29289C15.5196 2.10536 15.2652 2 15 2H9C8.73478 2 8.48043 2.10536 8.29289 2.29289C8.10536 2.48043 8 2.73478 8 3V5C8 5.55228 7.55228 6 7 6C6.44772 6 6 5.55228 6 5V3C6 2.20435 6.31607 1.44129 6.87868 0.87868Z" fill="white"/>
</svg>
