<svg width="15" height="18" viewBox="0 0 15 18" fill="none" xmlns="http://www.w3.org/2000/svg">
<path fill-rule="evenodd" clip-rule="evenodd" d="M3.75 0.875C3.75 0.529822 4.02982 0.25 4.375 0.25H10.625C10.9702 0.25 11.25 0.529822 11.25 0.875V4C11.25 4.34518 10.9702 4.625 10.625 4.625H4.375C4.02982 4.625 3.75 4.34518 3.75 4V0.875ZM5 1.5V3.375H10V1.5H5Z" fill="black"/>
<path fill-rule="evenodd" clip-rule="evenodd" d="M0.991117 1.86612C1.22554 1.6317 1.54348 1.5 1.875 1.5H4.375C4.72018 1.5 5 1.77982 5 2.125C5 2.47018 4.72018 2.75 4.375 2.75L1.875 2.75L1.875 15.875H13.125V2.75H10.625C10.2798 2.75 10 2.47018 10 2.125C10 1.77982 10.2798 1.5 10.625 1.5H13.125C13.4565 1.5 13.7745 1.6317 14.0089 1.86612C14.2433 2.10054 14.375 2.41848 14.375 2.75V15.875C14.375 16.2065 14.2433 16.5245 14.0089 16.7589C13.7745 16.9933 13.4565 17.125 13.125 17.125H1.875C1.54348 17.125 1.22554 16.9933 0.991117 16.7589C0.756696 16.5245 0.625 16.2065 0.625 15.875V2.75C0.625 2.41848 0.756696 2.10054 0.991117 1.86612Z" fill="black"/>
<path fill-rule="evenodd" clip-rule="evenodd" d="M4.375 10.875C4.375 10.5298 4.65482 10.25 5 10.25H10C10.3452 10.25 10.625 10.5298 10.625 10.875C10.625 11.2202 10.3452 11.5 10 11.5H5C4.65482 11.5 4.375 11.2202 4.375 10.875Z" fill="black"/>
<path fill-rule="evenodd" clip-rule="evenodd" d="M4.375 8.375C4.375 8.02982 4.65482 7.75 5 7.75H10C10.3452 7.75 10.625 8.02982 10.625 8.375C10.625 8.72018 10.3452 9 10 9H5C4.65482 9 4.375 8.72018 4.375 8.375Z" fill="black"/>
</svg>
