<svg width="10" height="11" viewBox="0 0 10 11" fill="none" xmlns="http://www.w3.org/2000/svg">
<path fill-rule="evenodd" clip-rule="evenodd" d="M5 1.375C2.72183 1.375 0.875 3.22183 0.875 5.5C0.875 7.77817 2.72183 9.625 5 9.625C7.27817 9.625 9.125 7.77817 9.125 5.5C9.125 3.22183 7.27817 1.375 5 1.375ZM0.125 5.5C0.125 2.80761 2.30761 0.625 5 0.625C7.69239 0.625 9.875 2.80761 9.875 5.5C9.875 8.19239 7.69239 10.375 5 10.375C2.30761 10.375 0.125 8.19239 0.125 5.5Z" fill="#4B4B4B"/>
<path fill-rule="evenodd" clip-rule="evenodd" d="M2.75 5.5C2.75 5.29289 2.91789 5.125 3.125 5.125H6.875C7.08211 5.125 7.25 5.29289 7.25 5.5C7.25 5.70711 7.08211 5.875 6.875 5.875H3.125C2.91789 5.875 2.75 5.70711 2.75 5.5Z" fill="#4B4B4B"/>
</svg>
