<svg width="25" height="24" viewBox="0 0 25 24" fill="none" xmlns="http://www.w3.org/2000/svg">
<path fill-rule="evenodd" clip-rule="evenodd" d="M12.5 10.5C12.9142 10.5 13.25 10.8358 13.25 11.25L13.25 20.25C13.25 20.6642 12.9142 21 12.5 21C12.0858 21 11.75 20.6642 11.75 20.25L11.75 11.25C11.75 10.8358 12.0858 10.5 12.5 10.5Z" fill="#FFFFFF"/>
<path fill-rule="evenodd" clip-rule="evenodd" d="M12.5 3C12.9142 3 13.25 3.33579 13.25 3.75L13.25 8.25C13.25 8.66422 12.9142 9 12.5 9C12.0858 9 11.75 8.66421 11.75 8.25L11.75 3.75C11.75 3.33578 12.0858 3 12.5 3Z" fill="#FFFFFF"/>
<path fill-rule="evenodd" clip-rule="evenodd" d="M19.25 18C19.6642 18 20 18.3357 20 18.75L20.0001 20.25C20.0001 20.6642 19.6643 21 19.2501 21C18.8359 21 18.5001 20.6643 18.5001 20.25L18.5 18.75C18.5 18.3358 18.8357 18 19.25 18Z" fill="#FFFFFF"/>
<path fill-rule="evenodd" clip-rule="evenodd" d="M19.2501 3C19.6643 3 20.0001 3.33579 20.0001 3.75L20 15.75C20 16.1642 19.6642 16.5 19.25 16.5C18.8358 16.5 18.5 16.1642 18.5 15.75L18.5001 3.75C18.5001 3.33578 18.8359 3 19.2501 3Z" fill="#FFFFFF"/>
<path fill-rule="evenodd" clip-rule="evenodd" d="M16.25 15.75C16.25 15.3358 16.5858 15 17 15H21.5C21.9142 15 22.25 15.3358 22.25 15.75C22.25 16.1642 21.9142 16.5 21.5 16.5H17C16.5858 16.5 16.25 16.1642 16.25 15.75Z" fill="#FFFFFF"/>
<path fill-rule="evenodd" clip-rule="evenodd" d="M5.75006 15C6.16428 15 6.50006 15.3358 6.50006 15.75L6.5 20.25C6.49999 20.6642 6.1642 21 5.74999 21C5.33578 21 4.99999 20.6642 5 20.25L5.00006 15.75C5.00006 15.3358 5.33585 15 5.75006 15Z" fill="#FFFFFF"/>
<path fill-rule="evenodd" clip-rule="evenodd" d="M5.75 3C6.16421 3 6.5 3.33578 6.5 3.75L6.50006 12.75C6.50006 13.1642 6.16427 13.5 5.75006 13.5C5.33585 13.5 5.00006 13.1642 5.00006 12.75L5 3.75C5 3.33579 5.33578 3 5.75 3Z" fill="#FFFFFF"/>
<path fill-rule="evenodd" clip-rule="evenodd" d="M2.75 12.75C2.75 12.3358 3.08579 12 3.5 12H8C8.41421 12 8.75 12.3358 8.75 12.75C8.75 13.1642 8.41421 13.5 8 13.5H3.5C3.08579 13.5 2.75 13.1642 2.75 12.75Z" fill="#FFFFFF"/>
<path fill-rule="evenodd" clip-rule="evenodd" d="M9.5 8.25C9.5 7.83579 9.83579 7.5 10.25 7.5H14.75C15.1642 7.5 15.5 7.83579 15.5 8.25C15.5 8.66421 15.1642 9 14.75 9H10.25C9.83579 9 9.5 8.66421 9.5 8.25Z" fill="#FFFFFF"/>
</svg>
