<svg width="14" height="14" viewBox="0 0 14 14" fill="none" xmlns="http://www.w3.org/2000/svg">
<path fill-rule="evenodd" clip-rule="evenodd" d="M0.792893 0.791795C0.98043 0.604258 1.23478 0.498901 1.5 0.498901H7.5C7.76522 0.498901 8.01957 0.604258 8.20711 0.791795C8.39464 0.979332 8.5 1.23369 8.5 1.4989V12.9989C8.5 13.275 8.27614 13.4989 8 13.4989C7.72386 13.4989 7.5 13.275 7.5 12.9989V1.4989H1.5L1.5 12.9989C1.5 13.275 1.27614 13.4989 1 13.4989C0.723858 13.4989 0.5 13.275 0.5 12.9989V1.4989C0.5 1.23369 0.605357 0.979331 0.792893 0.791795Z" fill="black"/>
<path fill-rule="evenodd" clip-rule="evenodd" d="M7.5 4.9989C7.5 4.72276 7.72386 4.4989 8 4.4989H12.5C12.7652 4.4989 13.0196 4.60426 13.2071 4.79179C13.3946 4.97933 13.5 5.23369 13.5 5.4989V12.9989C13.5 13.275 13.2761 13.4989 13 13.4989C12.7239 13.4989 12.5 13.275 12.5 12.9989L12.5 5.4989L8 5.4989C7.72386 5.4989 7.5 5.27504 7.5 4.9989Z" fill="black"/>
<path fill-rule="evenodd" clip-rule="evenodd" d="M2.5 3.4989C2.5 3.22276 2.72386 2.9989 3 2.9989H5C5.27614 2.9989 5.5 3.22276 5.5 3.4989C5.5 3.77504 5.27614 3.9989 5 3.9989H3C2.72386 3.9989 2.5 3.77504 2.5 3.4989Z" fill="black"/>
<path fill-rule="evenodd" clip-rule="evenodd" d="M3.5 8.4989C3.5 8.22276 3.72386 7.9989 4 7.9989H6C6.27614 7.9989 6.5 8.22276 6.5 8.4989C6.5 8.77504 6.27614 8.9989 6 8.9989H4C3.72386 8.9989 3.5 8.77504 3.5 8.4989Z" fill="black"/>
<path fill-rule="evenodd" clip-rule="evenodd" d="M2.5 10.9989C2.5 10.7228 2.72386 10.4989 3 10.4989H5C5.27614 10.4989 5.5 10.7228 5.5 10.9989C5.5 11.275 5.27614 11.4989 5 11.4989H3C2.72386 11.4989 2.5 11.275 2.5 10.9989Z" fill="black"/>
<path fill-rule="evenodd" clip-rule="evenodd" d="M9.5 9.9989C9.5 9.72276 9.72386 9.4989 10 9.4989H11C11.2761 9.4989 11.5 9.72276 11.5 9.9989C11.5 10.275 11.2761 10.4989 11 10.4989H10C9.72386 10.4989 9.5 10.275 9.5 9.9989Z" fill="black"/>
<path fill-rule="evenodd" clip-rule="evenodd" d="M9.5 7.4989C9.5 7.22276 9.72386 6.9989 10 6.9989H11C11.2761 6.9989 11.5 7.22276 11.5 7.4989C11.5 7.77504 11.2761 7.9989 11 7.9989H10C9.72386 7.9989 9.5 7.77504 9.5 7.4989Z" fill="black"/>
</svg>
