<svg width="12" height="12" viewBox="0 0 12 12" fill="none" xmlns="http://www.w3.org/2000/svg">
<path fill-rule="evenodd" clip-rule="evenodd" d="M8.35355 3.64645C8.54882 3.84171 8.54882 4.15829 8.35355 4.35355L4.35355 8.35355C4.15829 8.54882 3.84171 8.54882 3.64645 8.35355C3.45118 8.15829 3.45118 7.84171 3.64645 7.64645L7.64645 3.64645C7.84171 3.45118 8.15829 3.45118 8.35355 3.64645Z" fill="white"/>
<path fill-rule="evenodd" clip-rule="evenodd" d="M3.64645 3.64645C3.84171 3.45118 4.15829 3.45118 4.35355 3.64645L8.35355 7.64645C8.54882 7.84171 8.54882 8.15829 8.35355 8.35355C8.15829 8.54882 7.84171 8.54882 7.64645 8.35355L3.64645 4.35355C3.45118 4.15829 3.45118 3.84171 3.64645 3.64645Z" fill="white"/>
<path fill-rule="evenodd" clip-rule="evenodd" d="M0 1C0 0.447715 0.447715 0 1 0H11C11.5523 0 12 0.447715 12 1V11C12 11.5523 11.5523 12 11 12H1C0.447715 12 0 11.5523 0 11V1ZM11 1H1V11H11V1Z" fill="white"/>
</svg>
