<svg width="14" height="15" viewBox="0 0 14 15" fill="none" xmlns="http://www.w3.org/2000/svg">
<path fill-rule="evenodd" clip-rule="evenodd" d="M7 4.5C5.34315 4.5 4 5.84315 4 7.5C4 9.15685 5.34315 10.5 7 10.5C8.65685 10.5 10 9.15685 10 7.5C10 5.84315 8.65685 4.5 7 4.5ZM3 7.5C3 5.29086 4.79086 3.5 7 3.5C9.20914 3.5 11 5.29086 11 7.5C11 9.70914 9.20914 11.5 7 11.5C4.79086 11.5 3 9.70914 3 7.5Z" fill="white"/>
<path fill-rule="evenodd" clip-rule="evenodd" d="M8.59555 0.780635C8.74226 0.757763 8.8922 0.767471 9.03473 0.809069L9.03993 0.810587C9.47114 0.941521 9.88859 1.11411 10.2864 1.32586L10.2917 1.32868C10.422 1.40005 10.5349 1.49933 10.6224 1.61938C10.7094 1.73882 10.7691 1.87591 10.7974 2.02095C10.7975 2.0217 10.7976 2.02245 10.7978 2.0232L10.9954 3.01098L11.4884 3.50399L12.4761 3.70157C12.4768 3.7017 12.4776 3.70184 12.4783 3.70198C12.6233 3.7302 12.7605 3.78993 12.8799 3.87699C13 3.96447 13.0992 4.07738 13.1706 4.20765L13.1734 4.21289C13.3852 4.61068 13.5578 5.02814 13.6887 5.45935L13.6903 5.46457C13.7319 5.60711 13.7416 5.75706 13.7187 5.90377C13.6959 6.04993 13.6414 6.18931 13.5589 6.31209C13.5586 6.31254 13.5582 6.313 13.5579 6.31345L12.9992 7.15156V7.84878L13.5579 8.68688C13.5582 8.68728 13.5585 8.68768 13.5587 8.68808C13.6413 8.81089 13.6959 8.95034 13.7187 9.09657C13.7416 9.24328 13.7319 9.39322 13.6903 9.53576L13.6888 9.54099C13.5578 9.9722 13.3852 10.3896 13.1734 10.7874L13.1706 10.7927C13.0992 10.923 13 11.0359 12.8799 11.1233C12.7604 11.2104 12.6233 11.2701 12.4783 11.2983C12.4775 11.2985 12.4768 11.2986 12.4761 11.2988L11.4883 11.4963L10.9953 11.9893L10.7977 12.9771C10.7976 12.9779 10.7974 12.9786 10.7973 12.9794C10.7691 13.1244 10.7093 13.2615 10.6223 13.3809C10.5348 13.501 10.4219 13.6002 10.2917 13.6716L10.2864 13.6745C9.88858 13.8863 9.47112 14.0588 9.03991 14.1897L9.03474 14.1913C8.89221 14.2329 8.74225 14.2426 8.59555 14.2197C8.44934 14.1969 8.30992 14.1423 8.18712 14.0598C8.1867 14.0595 8.18628 14.0592 8.18586 14.0589L7.34774 13.5002H6.65051L5.81238 14.0589C5.81199 14.0591 5.8116 14.0594 5.81122 14.0597C5.6884 14.1422 5.54896 14.1968 5.40273 14.2196C5.25603 14.2425 5.1061 14.2328 4.96358 14.1912L4.95837 14.1897C4.52714 14.0588 4.10968 13.8862 3.71188 13.6744L3.70658 13.6716C3.57631 13.6002 3.46342 13.5009 3.37594 13.3809C3.2889 13.2614 3.22916 13.1243 3.20096 12.9792C3.20082 12.9785 3.20067 12.9778 3.20053 12.9771L3.003 11.9893L2.51001 11.4963L1.52221 11.2987C1.52151 11.2986 1.5208 11.2984 1.5201 11.2983C1.37501 11.2701 1.23788 11.2103 1.11841 11.1233C0.998364 11.0358 0.899111 10.9229 0.82774 10.7926L0.824846 10.7874C0.613078 10.3895 0.440548 9.97204 0.309629 9.54081L0.30806 9.53564C0.266466 9.39311 0.256788 9.24316 0.279659 9.09646C0.302454 8.95025 0.35705 8.81083 0.43959 8.68803C0.439868 8.68762 0.440147 8.6872 0.440426 8.68679L0.999131 7.84872V7.15149L0.440439 6.31344C0.440158 6.31302 0.439877 6.31261 0.439596 6.31219C0.357054 6.18939 0.302455 6.04997 0.279657 5.90376C0.256782 5.75706 0.266485 5.60712 0.308078 5.46459L0.309604 5.45935C0.440557 5.02813 0.613173 4.61067 0.824957 4.21286L0.827769 4.20758C0.899141 4.0773 0.99843 3.9644 1.11848 3.87692C1.23795 3.78986 1.37508 3.73013 1.52016 3.70192L2.51001 3.50398L3.00306 3.01093L3.20101 2.02108C3.22922 1.87599 3.28896 1.73886 3.37602 1.61939C3.46351 1.49933 3.57643 1.40007 3.70672 1.3287L3.71198 1.32582C4.10978 1.11407 4.52725 0.941548 4.95846 0.810615L4.96364 0.809041C5.10618 0.767443 5.25613 0.757764 5.40283 0.780635C5.54902 0.803425 5.68842 0.858006 5.8112 0.940522C5.81164 0.940816 5.81208 0.941111 5.81252 0.941405L6.65058 1.5001H7.34781L8.18586 0.941406C8.18629 0.941121 8.18671 0.940836 8.18713 0.940551C8.30993 0.858018 8.44935 0.803427 8.59555 0.780635ZM8.75386 1.76884C8.75246 1.76853 8.75101 1.76848 8.74959 1.7687C8.74792 1.76896 8.74633 1.76958 8.74494 1.77052L8.74276 1.772L7.77654 2.41613C7.69441 2.47089 7.59791 2.5001 7.49919 2.5001H6.49919C6.40048 2.5001 6.30398 2.47089 6.22184 2.41613L5.25344 1.77053C5.25204 1.76959 5.25046 1.76896 5.2488 1.7687C5.24737 1.76848 5.24592 1.76853 5.24452 1.76884C4.87862 1.88026 4.52432 2.02669 4.18653 2.20611C4.18562 2.2067 4.18483 2.20746 4.18419 2.20833C4.18341 2.20941 4.18287 2.21064 4.18262 2.21195L4.18191 2.21564L3.95396 3.35547C3.93461 3.45228 3.88703 3.54118 3.81722 3.61098L3.11007 4.31814C3.04026 4.38794 2.95136 4.43552 2.85456 4.45488L1.71103 4.68355C1.70972 4.6838 1.70849 4.68432 1.70741 4.6851C1.70654 4.68574 1.70579 4.68653 1.70519 4.68743C1.52575 5.02522 1.37929 5.37952 1.26786 5.74543C1.26754 5.74683 1.2675 5.74828 1.26772 5.7497C1.26798 5.75136 1.2686 5.75295 1.26954 5.75434L1.27102 5.75654L1.91516 6.72276C1.96991 6.80489 1.99913 6.90139 1.99913 7.00011V8.00011C1.99913 8.09882 1.96991 8.19532 1.91516 8.27746L1.26955 9.24586C1.26861 9.24726 1.26798 9.24884 1.26772 9.2505C1.2675 9.25193 1.26755 9.25338 1.26786 9.25478C1.37926 9.62068 1.52569 9.97499 1.70512 10.3128C1.70571 10.3137 1.70647 10.3145 1.70734 10.3151C1.70842 10.3159 1.70966 10.3164 1.71097 10.3167L1.71465 10.3174L2.85458 10.5454C2.95137 10.5648 3.04027 10.6123 3.11007 10.6821L3.81716 11.3892C3.88697 11.459 3.93454 11.5479 3.9539 11.6447L4.18258 12.7883C4.18272 12.7891 4.18293 12.7898 4.18324 12.7904C4.18349 12.791 4.18379 12.7915 4.18414 12.792C4.18478 12.7928 4.18557 12.7936 4.18647 12.7942C4.52423 12.9736 4.87851 13.12 5.24439 13.2314C5.24579 13.2318 5.24724 13.2318 5.24867 13.2316C5.25033 13.2313 5.25191 13.2307 5.25331 13.2298L5.25551 13.2283L6.22179 12.5841C6.30392 12.5294 6.40042 12.5002 6.49913 12.5002H7.49913C7.59784 12.5002 7.69435 12.5294 7.77648 12.5841L8.74494 13.2298C8.74634 13.2308 8.74792 13.2314 8.74959 13.2316C8.75101 13.2319 8.75246 13.2318 8.75386 13.2315C9.11974 13.1201 9.47403 12.9737 9.8118 12.7942C9.8127 12.7936 9.81349 12.7929 9.81413 12.792C9.81492 12.7909 9.81545 12.7897 9.8157 12.7884L9.81641 12.7847L10.0444 11.6448C10.0638 11.548 10.1114 11.4591 10.1811 11.3893L10.8882 10.6822C10.958 10.6123 11.047 10.5648 11.1438 10.5454L12.2874 10.3167C12.2887 10.3165 12.2899 10.3159 12.291 10.3152C12.2918 10.3145 12.2926 10.3137 12.2932 10.3128C12.4726 9.97507 12.6191 9.62079 12.7305 9.25491C12.7308 9.25351 12.7309 9.25206 12.7307 9.25064C12.7304 9.24897 12.7298 9.24739 12.7288 9.24599L12.7274 9.24379L12.0832 8.27752C12.0284 8.19539 11.9992 8.09888 11.9992 8.00017V7.00017C11.9992 6.90145 12.0284 6.80495 12.0832 6.72281L12.7274 5.75654L12.7288 5.75435C12.7298 5.75295 12.7304 5.75137 12.7307 5.7497C12.7309 5.74827 12.7308 5.74682 12.7305 5.74542C12.6191 5.37954 12.4726 5.02526 12.2932 4.68749C12.2926 4.68659 12.2918 4.6858 12.291 4.68516C12.2899 4.68438 12.2887 4.68384 12.2874 4.68359L12.2837 4.68288L11.1438 4.45487C11.047 4.43551 10.9581 4.38794 10.8883 4.31814L10.1812 3.61104C10.1114 3.54124 10.0638 3.45235 10.0445 3.35555L9.81576 2.21196C9.8155 2.21065 9.81498 2.20941 9.8142 2.20834C9.81356 2.20746 9.81277 2.20671 9.81187 2.20612C9.47407 2.02669 9.11977 1.88026 8.75386 1.76884Z" fill="white"/>
</svg>
