<svg width="20" height="21" viewBox="0 0 20 21" fill="none" xmlns="http://www.w3.org/2000/svg">
<path d="M10 13C12.7614 13 15 10.7614 15 8C15 5.23858 12.7614 3 10 3C7.23858 3 5 5.23858 5 8C5 10.7614 7.23858 13 10 13Z" stroke="black" stroke-width="1.5" stroke-linecap="round" stroke-linejoin="round"/>
<path d="M2.42114 17.3743C3.18955 16.0442 4.29443 14.9398 5.6248 14.172C6.95517 13.4042 8.46417 13 10.0002 13C11.5363 13 13.0453 13.4043 14.3756 14.1721C15.706 14.94 16.8108 16.0444 17.5792 17.3744" stroke="black" stroke-width="1.5" stroke-linecap="round" stroke-linejoin="round"/>
</svg>
