<svg width="13" height="13" viewBox="0 0 13 13" fill="none" xmlns="http://www.w3.org/2000/svg">
<path fill-rule="evenodd" clip-rule="evenodd" d="M2.17165 1.39431C2.31751 1.24845 2.51535 1.1665 2.72163 1.1665H7.38867C7.49181 1.1665 7.59073 1.20748 7.66366 1.28041L10.3859 4.00263C10.4588 4.07556 10.4998 4.17448 10.4998 4.27761V10.4998C10.4998 10.602 10.4797 10.7031 10.4406 10.7975C10.4015 10.8918 10.3442 10.9776 10.272 11.0498C10.1998 11.122 10.114 11.1793 10.0196 11.2184C9.92528 11.2575 9.82414 11.2776 9.722 11.2776H2.72163C2.51535 11.2776 2.31752 11.1957 2.17165 11.0498C2.02579 10.9039 1.94385 10.7061 1.94385 10.4998V1.94428C1.94385 1.738 2.02579 1.54017 2.17165 1.39431ZM7.22759 1.94428L2.72163 1.94428L2.72163 10.4998L9.722 10.4998V4.4387L7.22759 1.94428Z" fill="white"/>
<path fill-rule="evenodd" clip-rule="evenodd" d="M7.38889 1.1665C7.60367 1.1665 7.77778 1.34062 7.77778 1.55539V3.88873H10.1115C10.3263 3.88873 10.5004 4.06284 10.5004 4.27761C10.5004 4.49239 10.3263 4.6665 10.1115 4.6665H7.38889C7.17411 4.6665 7 4.49239 7 4.27761V1.55539C7 1.34062 7.17411 1.1665 7.38889 1.1665Z" fill="white"/>
<path fill-rule="evenodd" clip-rule="evenodd" d="M6.71498 7.88197C6.86685 7.7301 7.11308 7.7301 7.26495 7.88197L8.04273 8.65975C8.1946 8.81162 8.1946 9.05785 8.04273 9.20972C7.89086 9.36159 7.64463 9.36159 7.49276 9.20972L6.71498 8.43194C6.56311 8.28007 6.56311 8.03384 6.71498 7.88197Z" fill="white"/>
<path fill-rule="evenodd" clip-rule="evenodd" d="M6.02734 6.22211C5.4904 6.22211 5.05512 6.65739 5.05512 7.19434C5.05512 7.73128 5.4904 8.16656 6.02734 8.16656C6.56429 8.16656 6.99957 7.73128 6.99957 7.19434C6.99957 6.65739 6.56429 6.22211 6.02734 6.22211ZM4.27734 7.19434C4.27734 6.22784 5.06085 5.44434 6.02734 5.44434C6.99384 5.44434 7.77734 6.22784 7.77734 7.19434C7.77734 8.16083 6.99384 8.94433 6.02734 8.94433C5.06085 8.94433 4.27734 8.16083 4.27734 7.19434Z" fill="white"/>
</svg>
